CBO,Quantidade,SUS Sim,SUS Nao
251605 - ASSISTENTE SOCIAL,2,2,0
322230 - AUXILIAR DE ENFERMAGEM,2,2,0
324210 - AUXILIAR TECNICO EM PATOLOGIA,1,1,0
221205 - BIOMEDICO,1,1,0
131205 - DIRETOR DE SERVICOS DE SAUDE,1,1,0
223505 - ENFERMEIRO,29,29,0
223405 - FARMACEUTICO,2,2,0
223415 - FARMACEUTICO ANALISTA CLINICO,1,1,0
223605 - FISIOTERAPEUTA GERAL,10,10,0
225151 - MEDICO ANESTESIOLOGISTA,5,5,0
225115 - MEDICO ANGIOLOGISTA,1,1,0
225120 - MEDICO CARDIOLOGISTA,1,1,0
225225 - MEDICO CIRURGIAO GERAL,24,24,0
225125 - MEDICO CLINICO,40,40,0
225203 - MEDICO EM CIRURGIA VASCULAR,6,6,0
225150 - MEDICO EM MEDICINA INTENSIVA,4,4,0
225320 - MEDICO EM RADIOLOGIA E,1,1,0
225250 - MEDICO GINECOLOGISTA E,1,1,0
225103 - MEDICO INFECTOLOGISTA,1,1,0
225109 - MEDICO NEFROLOGISTA,2,2,0
225270 - MEDICO ORTOPEDISTA E,19,19,0
225124 - MEDICO PEDIATRA,14,14,0
2231F9 - MEDICO RESIDENTE,3,3,0
225285 - MEDICO UROLOGISTA,1,1,0
223710 - NUTRICIONISTA,3,3,0
251520 - PSICOLOGO HOSPITALAR,1,1,0
322205 - TECNICO DE ENFERMAGEM,103,103,0
325210 - TECNICO EM NUTRICAO E DIETETICA,2,2,0
324205 - TECNICO EM PATOLOGIA CLINICA,7,7,0
324115 - TECNICO EM RADIOLOGIA E,8,8,0
"","","",""
TOTAL,296
