CBO,Quantidade,SUS Sim,SUS Nao
"411005 - AUXILIAR DE ESCRITORIO, EM GERAL",4,0,4
223268 - CIRURGIAO DENTISTA,44,2,42
223224 - CIRURGIAO DENTISTA,6,0,6
223232 - CIRURGIAO DENTISTA,1,0,1
223208 - CIRURGIAO DENTISTA CLINICO GERAL,2,0,2
223288 - CIRURGIAO DENTISTA ODONTOLOGIA,1,0,1
223252 - CIRURGIAO DENTISTA PROTESIOLOGO,1,0,1
131205 - DIRETOR DE SERVICOS DE SAUDE,1,0,1
512105 - EMPREGADO DOMESTICO NOS,1,0,1
223505 - ENFERMEIRO,1,1,0
223535 - ENFERMEIRO NEFROLOGISTA,1,0,1
213150 - FISICO (MEDICINA),1,1,0
223605 - FISIOTERAPEUTA GERAL,39,0,39
225151 - MEDICO ANESTESIOLOGISTA,43,0,43
225115 - MEDICO ANGIOLOGISTA,19,0,19
225290 - MEDICO CANCEROLOGISTA,15,1,14
225120 - MEDICO CARDIOLOGISTA,75,2,73
2231G1 - MEDICO CARDIOLOGISTA,7,0,7
225210 - MEDICO CIRURGIAO,8,0,8
225295 - MEDICO CIRURGIAO DA MAO,2,0,2
225215 - MEDICO CIRURGIAO DE CABECA E,13,0,13
225220 - MEDICO CIRURGIAO DO APARELHO,13,0,13
225225 - MEDICO CIRURGIAO GERAL,74,3,71
225235 - MEDICO CIRURGIAO PLASTICO,37,0,37
225240 - MEDICO CIRURGIAO TORACICO,5,0,5
225125 - MEDICO CLINICO,160,0,160
225280 - MEDICO COLOPROCTOLOGISTA,19,0,19
225135 - MEDICO DERMATOLOGISTA,2,0,2
225203 - MEDICO EM CIRURGIA VASCULAR,34,0,34
225310 - MEDICO EM ENDOSCOPIA,1,0,1
225150 - MEDICO EM MEDICINA INTENSIVA,34,1,33
225315 - MEDICO EM MEDICINA NUCLEAR,4,2,2
225320 - MEDICO EM RADIOLOGIA E,18,0,18
225155 - MEDICO ENDOCRINOLOGISTA E,8,0,8
225165 - MEDICO GASTROENTEROLOGISTA,19,0,19
225170 - MEDICO GENERALISTA,1,0,1
225180 - MEDICO GERIATRA,2,0,2
225250 - MEDICO GINECOLOGISTA E,24,0,24
225185 - MEDICO HEMATOLOGISTA,15,0,15
225103 - MEDICO INFECTOLOGISTA,11,0,11
225255 - MEDICO MASTOLOGISTA,35,0,35
225109 - MEDICO NEFROLOGISTA,15,0,15
225260 - MEDICO NEUROCIRURGIAO,23,2,21
225112 - MEDICO NEUROLOGISTA,22,0,22
225118 - MEDICO NUTROLOGISTA,1,0,1
225265 - MEDICO OFTALMOLOGISTA,4,0,4
225121 - MEDICO ONCOLOGISTA CLINICO,44,0,44
225270 - MEDICO ORTOPEDISTA E,153,0,153
225275 - MEDICO OTORRINOLARINGOLOGIST,21,0,21
225325 - MEDICO PATOLOGISTA,1,0,1
225124 - MEDICO PEDIATRA,1,0,1
225127 - MEDICO PNEUMOLOGISTA,12,0,12
225330 - MEDICO RADIOTERAPEUTA,5,0,5
225136 - MEDICO REUMATOLOGISTA,2,0,2
225285 - MEDICO UROLOGISTA,65,0,65
223910 - ORTOPTISTA,2,0,2
1312C1 - SANITARISTA,1,0,1
322210 - TECNICO DE ENFERMAGEM DE TERAPIA,1,0,1
313220 - TECNICO EM MANUTENCAO DE,1,0,1
324115 - TECNICO EM RADIOLOGIA E,1,0,1
"","","",""
TOTAL,1176
