CBO,Quantidade,SUS Sim,SUS Nao
252105 - ADMINISTRADOR,10,10,0
241005 - ADVOGADO,1,1,0
352210 - AGENTE DE SAUDE PUBLICA,2,2,0
411010 - ASSISTENTE ADMINISTRATIVO,141,141,0
251605 - ASSISTENTE SOCIAL,68,68,0
515110 - ATENDENTE DE ENFERMAGEM,8,8,0
413110 - AUXILIAR DE CONTABILIDADE,1,1,0
322230 - AUXILIAR DE ENFERMAGEM,566,566,0
"411005 - AUXILIAR DE ESCRITORIO, EM GERAL",12,12,0
413115 - AUXILIAR DE FATURAMENTO,2,2,0
322415 - AUXILIAR EM SAUDE BUCAL,4,4,0
261205 - BIBLIOTECARIO,1,1,0
221105 - BIOLOGO,1,1,0
223268 - CIRURGIAO DENTISTA,9,9,0
223228 - CIRURGIAO DENTISTA,1,1,0
223248 - CIRURGIAO DENTISTA,1,1,0
223236 - CIRURGIAO DENTISTA,1,1,0
223208 - CIRURGIAO DENTISTA CLINICO GERAL,21,21,0
223280 - CIRURGIAO DENTISTA DENTISTICA,3,3,0
223212 - CIRURGIAO DENTISTA ENDODONTISTA,2,2,0
223240 - CIRURGIAO DENTISTA ORTOPEDISTA,1,1,0
123105 - DIRETOR ADMINISTRATIVO,1,1,0
131205 - DIRETOR DE SERVICOS DE SAUDE,3,3,0
251225 - ECONOMISTA DO SETOR PUBLICO,1,1,0
223505 - ENFERMEIRO,732,732,0
223520 - ENFERMEIRO DE CENTRO CIRURGICO,1,1,0
223525 - ENFERMEIRO DE TERAPIA INTENSIVA,4,4,0
223545 - ENFERMEIRO OBSTETRICO,1,1,0
223560 - ENFERMEIRO SANITARISTA,5,5,0
214205 - ENGENHEIRO CIVIL,1,1,0
214330 - ENGENHEIRO ELETRONICO DE PROJETOS,1,1,0
223405 - FARMACEUTICO,45,45,0
223415 - FARMACEUTICO ANALISTA CLINICO,4,4,0
223605 - FISIOTERAPEUTA GERAL,164,164,0
223810 - FONOAUDIOLOGO,27,27,0
261125 - JORNALISTA,1,1,0
225151 - MEDICO ANESTESIOLOGISTA,44,44,0
225115 - MEDICO ANGIOLOGISTA,8,8,0
225290 - MEDICO CANCEROLOGISTA,4,4,0
225122 - MEDICO CANCEROLOGISTA,1,1,0
225120 - MEDICO CARDIOLOGISTA,17,17,0
225210 - MEDICO CIRURGIAO,9,9,0
225215 - MEDICO CIRURGIAO DE CABECA E,1,1,0
225225 - MEDICO CIRURGIAO GERAL,92,92,0
225230 - MEDICO CIRURGIAO PEDIATRICO,17,17,0
225235 - MEDICO CIRURGIAO PLASTICO,4,4,0
225240 - MEDICO CIRURGIAO TORACICO,2,2,0
225125 - MEDICO CLINICO,173,173,0
225280 - MEDICO COLOPROCTOLOGISTA,5,5,0
225135 - MEDICO DERMATOLOGISTA,2,2,0
225140 - MEDICO DO TRABALHO,4,4,0
225203 - MEDICO EM CIRURGIA VASCULAR,16,16,0
225310 - MEDICO EM ENDOSCOPIA,28,28,0
225150 - MEDICO EM MEDICINA INTENSIVA,171,171,0
225320 - MEDICO EM RADIOLOGIA E,32,32,0
225155 - MEDICO ENDOCRINOLOGISTA E,11,11,0
225165 - MEDICO GASTROENTEROLOGISTA,31,31,0
225175 - MEDICO GENETICISTA,1,1,0
225180 - MEDICO GERIATRA,1,1,0
225250 - MEDICO GINECOLOGISTA E,74,74,0
225185 - MEDICO HEMATOLOGISTA,1,1,0
225103 - MEDICO INFECTOLOGISTA,11,11,0
225255 - MEDICO MASTOLOGISTA,2,2,0
225109 - MEDICO NEFROLOGISTA,35,35,0
225260 - MEDICO NEUROCIRURGIAO,8,8,0
225112 - MEDICO NEUROLOGISTA,24,24,0
225118 - MEDICO NUTROLOGISTA,4,4,0
225265 - MEDICO OFTALMOLOGISTA,37,37,0
225121 - MEDICO ONCOLOGISTA CLINICO,2,2,0
225270 - MEDICO ORTOPEDISTA E,13,13,0
225275 - MEDICO OTORRINOLARINGOLOGIST,1,1,0
225124 - MEDICO PEDIATRA,161,161,0
225127 - MEDICO PNEUMOLOGISTA,3,3,0
225133 - MEDICO PSIQUIATRA,2,2,0
225330 - MEDICO RADIOTERAPEUTA,1,1,0
2231F9 - MEDICO RESIDENTE,192,192,0
225136 - MEDICO REUMATOLOGISTA,2,2,0
225139 - MEDICO SANITARISTA,3,3,0
225285 - MEDICO UROLOGISTA,17,17,0
782305 - MOTORISTA DE CARRO DE PASSEIO,7,7,0
223710 - NUTRICIONISTA,63,63,0
231305 - PROFESSOR DE CIENCIAS EXATAS E,1,1,0
231340 - PROFESSOR DE MATEMATICA DO ENSINO,1,1,0
322410 - PROTETICO DENTARIO,1,1,0
251510 - PSICOLOGO CLINICO,22,22,0
251520 - PSICOLOGO HOSPITALAR,13,13,0
422110 - RECEPCIONISTA DE CONSULTORIO MEDICO,3,3,0
"422105 - RECEPCIONISTA, EM GERAL",42,42,0
1312C1 - SANITARISTA,4,4,0
322205 - TECNICO DE ENFERMAGEM,1112,1112,0
322210 - TECNICO DE ENFERMAGEM DE TERAPIA,2,2,0
322505 - TECNICO DE ORTOPEDIA,1,1,0
351305 - TECNICO EM ADMINISTRACAO,18,18,0
313220 - TECNICO EM MANUTENCAO DE,1,1,0
325210 - TECNICO EM NUTRICAO E DIETETICA,3,3,0
324205 - TECNICO EM PATOLOGIA CLINICA,69,69,0
324115 - TECNICO EM RADIOLOGIA E,70,70,0
322405 - TECNICO EM SAUDE BUCAL,5,5,0
142535 - TECNOLOGO EM GESTAO DA TECNOLOGIA,1,1,0
223905 - TERAPEUTA OCUPACIONAL,9,9,0
"","","",""
TOTAL,4562
